[
    null,
    [{"name":"id","op":"eq","val":"7312"}],
    [{"name":"id","op":"eq","val":"7311"}],
    [{"name":"id","op":"eq","val":"11514"}],
    [{"name":"id","op":"eq","val":"7042"}],
    [{"name":"id","op":"eq","val":"7052"}],
    [{"name":"id","op":"eq","val":"7016"}]
]